<svg xmlns="http://www.w3.org/2000/svg" width="12.06" height="17.812" viewBox="0 0 12.06 17.812">
  <defs>
    <style>
      .cls-1 {
        fill: none;
        stroke: #808080;
        stroke-width: 3px;
        fill-rule: evenodd;
      }
    </style>
  </defs>
  <path id="arr_r" class="cls-1" d="M1306.14,879.09l6.85,7.41-6.85,7.41" transform="translate(-1302.44 -877.594)"/>
</svg>
